{
  "javaInstallationsCache": [
    "C:\\Program Files\\Common Files\\Oracle\\Java\\javapath\\java.exe",
    "C:\\Program Files\\Eclipse Adoptium\\jdk-8.0.402.6-hotspot\\jre\\bin\\java.exe",
    "C:\\Users\\danis\\Documents\\graalvm-jdk-22_windows-x64_bin\\graalvm-jdk-22.0.1+8.1\\bin\\java.exe"
  ],
  "javaInstallation": 2,
  "minMemoryMB": 4096,
  "maxMemoryMB": 4096,
  "garbageCollector": "GenerationalZGC",
  "customOptions": [
    "-Dsun.rmi.dgc.server.gcInterval\u003d1800000",
    "-XX:+ExplicitGCInvokesConcurrent",
    "-XX:+UnlockExperimentalVMOptions",
    "-XX:+AlwaysPreTouch",
    "-XX:+PerfDisableSharedMem",
    "-XX:-ZUncommit",
    "-XX:+ParallelRefProcEnabled",
    "-XX:ParallelGCThreads\u003d4",
    "-XX:MaxGCPauseMillis\u003d10",
    "-Xmn256M",
    "-Dfml.ignoreInvalidMinecraftCertificates\u003dtrue",
    "-Dfml.ignorePatchDiscrepancies\u003dtrue",
    "-XX:+EnableDynamicAgentLoading",
    "-XX:+UseStringDeduplication",
    "-XX:-OmitStackTraceInFastThrow",
    "-XX:+OptimizeStringConcat",
    "-Dfml.readTimeout\u003d90",
    "-XX:+UseLargePages",
    "-XX:-OmitStackTraceInFastThrow",
    "-XX:NewRatio\u003d3"
  ],
  "hideSettingsOnLaunch": false,
  "forwardLogs": false,
  "allowDebugger": false,
  "waitForDebugger": false,
  "mixinDebug": false,
  "mixinDebugExport": false,
  "mixinDebugCount": false,
  "fmlDebugAts": false,
  "rfbDumpClasses": false,
  "rfbDumpPerTransformer": false
}