{
	"generators" :
	{
		"amethyst" :
		{
			"amountPerChunk" : 0
		},
        "berry_bushes" :
        {
            "amountPerChunk" : 0
        },
		"ruby" :
		{
			"amountPerChunk" : 0
		},
		"peridot" :
		{
			"amountPerChunk" : 0
		},
		"topaz" :
		{
			"amountPerChunk" : 0
		},
		"tanzanite" :
		{
			"amountPerChunk" : 0
		},
		"malachite" :
		{
			"amountPerChunk" : 0
		},
		"sapphire" :
		{
			"amountPerChunk" : 0
		},
		"amber" :
		{
			"amountPerChunk" : 0
		},
		"poison_ivy" :
		{
			"amountPerChunk" : 0
		},
        "poison_lakes" :
        {
            "amountPerChunk" : 0
        },
		"thorn" :
		{
			"amountPerChunk" : 0
		},
        "quicksand" : 
        {
            "amountPerChunk" : 0
        }
	}
}